CM
…
gseaResDat <- gseaRes@result

as_tibble(gseaRes) %>% 
  arrange(desc(abs(NES))) %>% 
  top_n(20, wt=-p.adjust) %>% 
  dplyr::select(-core_enrichment) %>%
  mutate(across(c("enrichmentScore", "NES"), round, digits=3)) %>% 
  mutate(across(c("pvalue", "p.adjust", "qvalue"), scales::scientific))

# A tibble: 28 × 10
   ID            Description setSize enrichmentScore   NES pvalue p.adjust qvalue  rank leading_edge
   <chr>         <chr>         <int>           <dbl> <dbl> <chr>  <chr>    <chr>  <dbl> <chr>       
 1 HALLMARK_TGF… Genes up-r…      53           0.914  2.09 1.62e… 8.12e-05 7.69e…   485 tags=25%, l…
 2 HALLMARK_KRA… Genes up-r…     147           0.619  1.60 3.05e… 4.10e-01 3.88e…   912 tags=12%, l…
 3 HALLMARK_APO… Genes medi…     144           0.604  1.56 4.10e… 4.10e-01 3.88e…   837 tags=13%, l…
 4 HALLMARK_TNF… Genes regu…     168           0.586  1.53 3.59e… 4.10e-01 3.88e…  1203 tags=18%, l…
 5 HALLMARK_WNT… Genes up-r…      38           0.675  1.48 9.25e… 4.85e-01 4.60e…  1023 tags=18%, l…
 6 HALLMARK_COA… Genes enco…      95           0.584  1.45 7.99e… 4.85e-01 4.60e…   661 tags=14%, l…
 7 HALLMARK_HED… Genes up-r…      33          -0.577 -1.44 1.01e… 4.85e-01 4.60e…  1140 tags=21%, l…
 8 HALLMARK_UV_… Genes down…     141           0.558  1.43 6.46e… 4.85e-01 4.60e…   926 tags=15%, l…
 9 HALLMARK_EST… Genes defi…     161           0.54   1.40 7.41e… 4.85e-01 4.60e…   724 tags=12%, l…
10 HALLMARK_PER… Genes enco…      89          -0.454 -1.32 1.07e… 4.85e-01 4.60e…  2227 tags=25%, l…
# ℹ 18 more rows
…
